{
	"info": {
		"_postman_id": "b0714f9a-877e-489e-a4a3-ce80498d6c92",
		"name": "RecipesManagerService",
		"schema": "https://schema.getpostman.com/json/collection/v2.1.0/collection.json",
		"_exporter_id": "20974242"
	},
	"item": [
		{
			"name": "addRecipes",
			"request": {
				"method": "POST",
				"header": [],
				"body": {
					"mode": "raw",
					"raw": "{\n    \"name\": \"sandwich\",\n    \"serveCount\": 6,\n    \"type\":1,\n    \"instruction\": \"very loooooooooooooon text would be here\",\n    \"ingredients\" : [\n        {\n            \"name\": \"baken\",\n            \"count\": 600,\n            \"unit\": \"gram\",\n            \"instruction\": \"very loooooooooooooon text would be here\"\n        },\n        {\n            \"name\": \"bread\",\n            \"count\": 6,\n            \"unit\": \"number\",\n            \"instruction\": \"very loooooooooooooon text would be here\"\n        },\n        {\n            \"name\": \"tomato\",\n            \"count\": 3,\n            \"unit\": \"number\",\n            \"instruction\": \"very loooooooooooooon text would be here\"\n        }\n    ]\n\n}",
					"options": {
						"raw": {
							"language": "json"
						}
					}
				},
				"url": {
					"raw": "localhost:2121/recipes/add",
					"host": [
						"localhost"
					],
					"port": "2121",
					"path": [
						"recipes",
						"add"
					]
				}
			},
			"response": []
		},
		{
			"name": "getRecipesById",
			"request": {
				"method": "GET",
				"header": [],
				"url": {
					"raw": "localhost:2121/recipes/1",
					"host": [
						"localhost"
					],
					"port": "2121",
					"path": [
						"recipes",
						"1"
					]
				}
			},
			"response": []
		},
		{
			"name": "getRecipesList",
			"request": {
				"method": "GET",
				"header": [],
				"url": {
					"raw": "localhost:2121/recipes/list",
					"host": [
						"localhost"
					],
					"port": "2121",
					"path": [
						"recipes",
						"list"
					]
				}
			},
			"response": []
		},
		{
			"name": "getRecipesList - filterByType",
			"request": {
				"method": "GET",
				"header": [],
				"url": {
					"raw": "localhost:2121/recipes/list?type=0",
					"host": [
						"localhost"
					],
					"port": "2121",
					"path": [
						"recipes",
						"list"
					],
					"query": [
						{
							"key": "type",
							"value": "0"
						}
					]
				}
			},
			"response": []
		},
		{
			"name": "getRecipesList - pagination",
			"request": {
				"method": "GET",
				"header": [],
				"url": {
					"raw": "localhost:2121/recipes/list?page=0&size=2",
					"host": [
						"localhost"
					],
					"port": "2121",
					"path": [
						"recipes",
						"list"
					],
					"query": [
						{
							"key": "page",
							"value": "0"
						},
						{
							"key": "size",
							"value": "2"
						}
					]
				}
			},
			"response": []
		},
		{
			"name": "deleteRecipes",
			"request": {
				"method": "DELETE",
				"header": [],
				"url": {
					"raw": "localhost:2121/recipes/1",
					"host": [
						"localhost"
					],
					"port": "2121",
					"path": [
						"recipes",
						"1"
					]
				}
			},
			"response": []
		},
		{
			"name": "editRecipes",
			"request": {
				"method": "PUT",
				"header": [],
				"body": {
					"mode": "raw",
					"raw": "{\n    \"id\": 1,\n    \"name\": \"baken sandwich\",\n    \"serveCount\": 6,\n    \"type\": 1,\n    \"instruction\": \"very loooooooooooooon text would be here\"\n}",
					"options": {
						"raw": {
							"language": "json"
						}
					}
				},
				"url": {
					"raw": "localhost:2121/recipes",
					"host": [
						"localhost"
					],
					"port": "2121",
					"path": [
						"recipes"
					]
				}
			},
			"response": []
		},
		{
			"name": "filteredRecipes",
			"request": {
				"method": "POST",
				"header": [],
				"body": {
					"mode": "raw",
					"raw": "{\r\n    \"types\": [0,1,2,3],\r\n    \"serveCounts\":[1,2,3,4,5,6],\r\n    \"includeIngredients\":[\"baken\", \"bread\", \"tomato\"],\r\n    \"excludeIngredients\":[\"sausage\"]\r\n}",
					"options": {
						"raw": {
							"language": "json"
						}
					}
				},
				"url": {
					"raw": "localhost:2121/recipes/filter",
					"host": [
						"localhost"
					],
					"port": "2121",
					"path": [
						"recipes",
						"filter"
					]
				}
			},
			"response": []
		},
		{
			"name": "editRecipesIngredient",
			"request": {
				"method": "PUT",
				"header": [],
				"body": {
					"mode": "raw",
					"raw": "{\r\n    \"recipesId\": 1,\r\n    \"ingredientId\": 1,\r\n    \"name\": \"beef baken\",\r\n    \"count\": 700,\r\n    \"unit\": \"gram\",\r\n    \"instruction\": \"very loooooooooooooon text could be here\"\r\n}",
					"options": {
						"raw": {
							"language": "json"
						}
					}
				},
				"url": {
					"raw": "localhost:2121/recipes/ingredient",
					"host": [
						"localhost"
					],
					"port": "2121",
					"path": [
						"recipes",
						"ingredient"
					]
				}
			},
			"response": []
		},
		{
			"name": "addRecipesIngredient",
			"request": {
				"method": "POST",
				"header": [],
				"body": {
					"mode": "raw",
					"raw": "{\r\n    \"recipesId\": 1,\r\n    \"name\": \"sauce\",\r\n    \"count\": 1,\r\n    \"unit\": \"unit\",\r\n    \"instruction\": \"very loooooooooooooon text could be here\"\r\n}",
					"options": {
						"raw": {
							"language": "json"
						}
					}
				},
				"url": {
					"raw": "localhost:2121/recipes/ingredient",
					"host": [
						"localhost"
					],
					"port": "2121",
					"path": [
						"recipes",
						"ingredient"
					]
				}
			},
			"response": []
		},
		{
			"name": "deleteRecipesIngredient",
			"request": {
				"method": "DELETE",
				"header": [],
				"body": {
					"mode": "raw",
					"raw": "{\r\n    \"recipesId\": 1,\r\n    \"ingredientId\": 3\r\n}",
					"options": {
						"raw": {
							"language": "json"
						}
					}
				},
				"url": {
					"raw": "localhost:2121/recipes/ingredient",
					"host": [
						"localhost"
					],
					"port": "2121",
					"path": [
						"recipes",
						"ingredient"
					]
				}
			},
			"response": []
		}
	]
}